
./octez-client --wait none originate sc rollup from bootstrap1 of kind arith of type unit booting with  --burn-cap 9999999
Node is bootstrapped.
Estimated gas: 2909.925 units (will add 100 for safety)
Estimated storage: 6524 bytes added (will add 20 for safety)
Operation successfully injected in the node.
Operation hash is '[OPERATION_HASH]'
NOT waiting for the operation to be included.
Use command
  octez-client wait for [OPERATION_HASH] to be included --confirmations 1 --branch [BLOCK_HASH]
and/or an external block explorer to make sure that it has been included.
This sequence of operations was run:
  Manager signed operations:
    From: [PUBLIC_KEY_HASH]
    Fee to the baker: ꜩ0.000649
    Expected counter: 1
    Gas limit: 3010
    Storage limit: 6544 bytes
    Balance updates:
      [PUBLIC_KEY_HASH] ... -ꜩ0.000649
      payload fees(the block proposer) ....... +ꜩ0.000649
    Smart contract rollup origination:
      Kind: arith
      Parameter type: unit
      Boot sector Blake2B hash: '0e5751c026e543b2e8ab2eb06099daa1d1e5df47778f7787faab45cdf12fe3a8'
      This smart contract rollup origination was successfully applied
      Consumed gas: 2909.925
      Storage size: 6524 bytes
      Address: [SC_ROLLUP_HASH]
      Genesis commitment hash: [SC_ROLLUP_COMMITMENT_HASH]
      Balance updates:
        [PUBLIC_KEY_HASH] ... -ꜩ1.631
        storage fees ........................... +ꜩ1.631


./octez-client --wait none publish commitment from '[PUBLIC_KEY_HASH]' for sc rollup '[SC_ROLLUP_HASH]' with compressed state '[SC_ROLLUP_PVM_STATE_HASH]' at inbox level 5 and predecessor '[SC_ROLLUP_COMMITMENT_HASH]' and number of ticks 1
Node is bootstrapped.
Estimated gas: 5781.719 units (will add 100 for safety)
Estimated storage: no bytes added
Operation successfully injected in the node.
Operation hash is '[OPERATION_HASH]'
NOT waiting for the operation to be included.
Use command
  octez-client wait for [OPERATION_HASH] to be included --confirmations 1 --branch [BLOCK_HASH]
and/or an external block explorer to make sure that it has been included.
This sequence of operations was run:
  Manager signed operations:
    From: [PUBLIC_KEY_HASH]
    Fee to the baker: ꜩ0.00093
    Expected counter: 2
    Gas limit: 5882
    Storage limit: 0 bytes
    Balance updates:
      [PUBLIC_KEY_HASH] ... -ꜩ0.00093
      payload fees(the block proposer) ....... +ꜩ0.00093
    Smart contract rollup commitment publishing:
      Address: [SC_ROLLUP_HASH]
      Commitment:
        compressed_state: [SC_ROLLUP_PVM_STATE_HASH]
        inbox_level: 5
        predecessor: [SC_ROLLUP_COMMITMENT_HASH]
        number_of_ticks: 1
      This smart contract rollup commitment publishing was successfully applied
      Consumed gas: 5781.719
      Hash of commit: [SC_ROLLUP_COMMITMENT_HASH]
      Commitment published at level: 6
      Balance updates:
        [PUBLIC_KEY_HASH] ....................................................... -ꜩ10000
        Frozen_bonds([PUBLIC_KEY_HASH],[SC_ROLLUP_HASH]) ... +ꜩ10000


./octez-client --wait none publish commitment from '[PUBLIC_KEY_HASH]' for sc rollup '[SC_ROLLUP_HASH]' with compressed state '[SC_ROLLUP_PVM_STATE_HASH]' at inbox level 8 and predecessor '[SC_ROLLUP_COMMITMENT_HASH]' and number of ticks 2
Node is bootstrapped.
Estimated gas: 4245.547 units (will add 100 for safety)
Estimated storage: no bytes added
Operation successfully injected in the node.
Operation hash is '[OPERATION_HASH]'
NOT waiting for the operation to be included.
Use command
  octez-client wait for [OPERATION_HASH] to be included --confirmations 1 --branch [BLOCK_HASH]
and/or an external block explorer to make sure that it has been included.
This sequence of operations was run:
  Manager signed operations:
    From: [PUBLIC_KEY_HASH]
    Fee to the baker: ꜩ0.000776
    Expected counter: 3
    Gas limit: 4346
    Storage limit: 0 bytes
    Balance updates:
      [PUBLIC_KEY_HASH] ... -ꜩ0.000776
      payload fees(the block proposer) ....... +ꜩ0.000776
    Smart contract rollup commitment publishing:
      Address: [SC_ROLLUP_HASH]
      Commitment:
        compressed_state: [SC_ROLLUP_PVM_STATE_HASH]
        inbox_level: 8
        predecessor: [SC_ROLLUP_COMMITMENT_HASH]
        number_of_ticks: 2
      This smart contract rollup commitment publishing was successfully applied
      Consumed gas: 4245.547
      Hash of commit: [SC_ROLLUP_COMMITMENT_HASH]
      Commitment published at level: 9


./octez-client --wait none publish commitment from '[PUBLIC_KEY_HASH]' for sc rollup '[SC_ROLLUP_HASH]' with compressed state '[SC_ROLLUP_PVM_STATE_HASH]' at inbox level 11 and predecessor '[SC_ROLLUP_COMMITMENT_HASH]' and number of ticks 31
Node is bootstrapped.
Estimated gas: 4245.547 units (will add 100 for safety)
Estimated storage: no bytes added
Operation successfully injected in the node.
Operation hash is '[OPERATION_HASH]'
NOT waiting for the operation to be included.
Use command
  octez-client wait for [OPERATION_HASH] to be included --confirmations 1 --branch [BLOCK_HASH]
and/or an external block explorer to make sure that it has been included.
This sequence of operations was run:
  Manager signed operations:
    From: [PUBLIC_KEY_HASH]
    Fee to the baker: ꜩ0.000776
    Expected counter: 4
    Gas limit: 4346
    Storage limit: 0 bytes
    Balance updates:
      [PUBLIC_KEY_HASH] ... -ꜩ0.000776
      payload fees(the block proposer) ....... +ꜩ0.000776
    Smart contract rollup commitment publishing:
      Address: [SC_ROLLUP_HASH]
      Commitment:
        compressed_state: [SC_ROLLUP_PVM_STATE_HASH]
        inbox_level: 11
        predecessor: [SC_ROLLUP_COMMITMENT_HASH]
        number_of_ticks: 31
      This smart contract rollup commitment publishing was successfully applied
      Consumed gas: 4245.547
      Hash of commit: [SC_ROLLUP_COMMITMENT_HASH]
      Commitment published at level: 12


./octez-client --wait none publish commitment from '[PUBLIC_KEY_HASH]' for sc rollup '[SC_ROLLUP_HASH]' with compressed state '[SC_ROLLUP_PVM_STATE_HASH]' at inbox level 11 and predecessor '[SC_ROLLUP_COMMITMENT_HASH]' and number of ticks 32
Node is bootstrapped.
Estimated gas: 8082.075 units (will add 100 for safety)
Estimated storage: no bytes added
Operation successfully injected in the node.
Operation hash is '[OPERATION_HASH]'
NOT waiting for the operation to be included.
Use command
  octez-client wait for [OPERATION_HASH] to be included --confirmations 1 --branch [BLOCK_HASH]
and/or an external block explorer to make sure that it has been included.
This sequence of operations was run:
  Manager signed operations:
    From: [PUBLIC_KEY_HASH]
    Fee to the baker: ꜩ0.00116
    Expected counter: 1
    Gas limit: 8183
    Storage limit: 0 bytes
    Balance updates:
      [PUBLIC_KEY_HASH] ... -ꜩ0.00116
      payload fees(the block proposer) ....... +ꜩ0.00116
    Smart contract rollup commitment publishing:
      Address: [SC_ROLLUP_HASH]
      Commitment:
        compressed_state: [SC_ROLLUP_PVM_STATE_HASH]
        inbox_level: 11
        predecessor: [SC_ROLLUP_COMMITMENT_HASH]
        number_of_ticks: 32
      This smart contract rollup commitment publishing was successfully applied
      Consumed gas: 8082.075
      Hash of commit: [SC_ROLLUP_COMMITMENT_HASH]
      Commitment published at level: 13
      Balance updates:
        [PUBLIC_KEY_HASH] ....................................................... -ꜩ10000
        Frozen_bonds([PUBLIC_KEY_HASH],[SC_ROLLUP_HASH]) ... +ꜩ10000


./octez-client --wait none publish commitment from '[PUBLIC_KEY_HASH]' for sc rollup '[SC_ROLLUP_HASH]' with compressed state '[SC_ROLLUP_PVM_STATE_HASH]' at inbox level 14 and predecessor '[SC_ROLLUP_COMMITMENT_HASH]' and number of ticks 311
Node is bootstrapped.
Estimated gas: 4245.547 units (will add 100 for safety)
Estimated storage: no bytes added
Operation successfully injected in the node.
Operation hash is '[OPERATION_HASH]'
NOT waiting for the operation to be included.
Use command
  octez-client wait for [OPERATION_HASH] to be included --confirmations 1 --branch [BLOCK_HASH]
and/or an external block explorer to make sure that it has been included.
This sequence of operations was run:
  Manager signed operations:
    From: [PUBLIC_KEY_HASH]
    Fee to the baker: ꜩ0.000776
    Expected counter: 5
    Gas limit: 4346
    Storage limit: 0 bytes
    Balance updates:
      [PUBLIC_KEY_HASH] ... -ꜩ0.000776
      payload fees(the block proposer) ....... +ꜩ0.000776
    Smart contract rollup commitment publishing:
      Address: [SC_ROLLUP_HASH]
      Commitment:
        compressed_state: [SC_ROLLUP_PVM_STATE_HASH]
        inbox_level: 14
        predecessor: [SC_ROLLUP_COMMITMENT_HASH]
        number_of_ticks: 311
      This smart contract rollup commitment publishing was successfully applied
      Consumed gas: 4245.547
      Hash of commit: [SC_ROLLUP_COMMITMENT_HASH]
      Commitment published at level: 15


./octez-client --wait none publish commitment from '[PUBLIC_KEY_HASH]' for sc rollup '[SC_ROLLUP_HASH]' with compressed state '[SC_ROLLUP_PVM_STATE_HASH]' at inbox level 14 and predecessor '[SC_ROLLUP_COMMITMENT_HASH]' and number of ticks 321
Node is bootstrapped.
Estimated gas: 4245.547 units (will add 100 for safety)
Estimated storage: no bytes added
Operation successfully injected in the node.
Operation hash is '[OPERATION_HASH]'
NOT waiting for the operation to be included.
Use command
  octez-client wait for [OPERATION_HASH] to be included --confirmations 1 --branch [BLOCK_HASH]
and/or an external block explorer to make sure that it has been included.
This sequence of operations was run:
  Manager signed operations:
    From: [PUBLIC_KEY_HASH]
    Fee to the baker: ꜩ0.000776
    Expected counter: 2
    Gas limit: 4346
    Storage limit: 0 bytes
    Balance updates:
      [PUBLIC_KEY_HASH] ... -ꜩ0.000776
      payload fees(the block proposer) ....... +ꜩ0.000776
    Smart contract rollup commitment publishing:
      Address: [SC_ROLLUP_HASH]
      Commitment:
        compressed_state: [SC_ROLLUP_PVM_STATE_HASH]
        inbox_level: 14
        predecessor: [SC_ROLLUP_COMMITMENT_HASH]
        number_of_ticks: 321
      This smart contract rollup commitment publishing was successfully applied
      Consumed gas: 4245.547
      Hash of commit: [SC_ROLLUP_COMMITMENT_HASH]
      Commitment published at level: 16


./octez-client --wait none cement commitment '[SC_ROLLUP_COMMITMENT_HASH]' from bootstrap1 for sc rollup '[SC_ROLLUP_HASH]'
Node is bootstrapped.
This simulation failed:
  Manager signed operations:
    From: [PUBLIC_KEY_HASH]
    Fee to the baker: ꜩ0
    Expected counter: 6
    Gas limit: 1040000
    Storage limit: 60000 bytes
    Smart contract rollup commitment cementing:
      Address: [SC_ROLLUP_HASH]
      Commitment: [SC_ROLLUP_COMMITMENT_HASH]
      This operation FAILED.

Error:
  Attempted to cement a commitment before its refutation deadline.
  Current level: 22,
  minimal level: 27

./octez-client --wait none cement commitment '[SC_ROLLUP_COMMITMENT_HASH]' from bootstrap1 for sc rollup '[SC_ROLLUP_HASH]'
Node is bootstrapped.
This simulation failed:
  Manager signed operations:
    From: [PUBLIC_KEY_HASH]
    Fee to the baker: ꜩ0
    Expected counter: 6
    Gas limit: 1040000
    Storage limit: 60000 bytes
    Smart contract rollup commitment cementing:
      Address: [SC_ROLLUP_HASH]
      Commitment: [SC_ROLLUP_COMMITMENT_HASH]
      This operation FAILED.

Error:
  Parent is not the last cemented commitment.

./octez-client --wait none cement commitment '[SC_ROLLUP_COMMITMENT_HASH]' from bootstrap1 for sc rollup '[SC_ROLLUP_HASH]'
Node is bootstrapped.
This simulation failed:
  Manager signed operations:
    From: [PUBLIC_KEY_HASH]
    Fee to the baker: ꜩ0
    Expected counter: 6
    Gas limit: 1040000
    Storage limit: 60000 bytes
    Smart contract rollup commitment cementing:
      Address: [SC_ROLLUP_HASH]
      Commitment: [SC_ROLLUP_COMMITMENT_HASH]
      This operation FAILED.

Error:
  Parent is not the last cemented commitment.

./octez-client --wait none cement commitment '[SC_ROLLUP_COMMITMENT_HASH]' from bootstrap1 for sc rollup '[SC_ROLLUP_HASH]'
Node is bootstrapped.
This simulation failed:
  Manager signed operations:
    From: [PUBLIC_KEY_HASH]
    Fee to the baker: ꜩ0
    Expected counter: 6
    Gas limit: 1040000
    Storage limit: 60000 bytes
    Smart contract rollup commitment cementing:
      Address: [SC_ROLLUP_HASH]
      Commitment: [SC_ROLLUP_COMMITMENT_HASH]
      This operation FAILED.

Error:
  Parent is not the last cemented commitment.

./octez-client --wait none cement commitment '[SC_ROLLUP_COMMITMENT_HASH]' from bootstrap1 for sc rollup '[SC_ROLLUP_HASH]'
Node is bootstrapped.
This simulation failed:
  Manager signed operations:
    From: [PUBLIC_KEY_HASH]
    Fee to the baker: ꜩ0
    Expected counter: 6
    Gas limit: 1040000
    Storage limit: 60000 bytes
    Smart contract rollup commitment cementing:
      Address: [SC_ROLLUP_HASH]
      Commitment: [SC_ROLLUP_COMMITMENT_HASH]
      This operation FAILED.

Error:
  Parent is not the last cemented commitment.

./octez-client --wait none cement commitment '[SC_ROLLUP_COMMITMENT_HASH]' from bootstrap1 for sc rollup '[SC_ROLLUP_HASH]'
Node is bootstrapped.
This simulation failed:
  Manager signed operations:
    From: [PUBLIC_KEY_HASH]
    Fee to the baker: ꜩ0
    Expected counter: 6
    Gas limit: 1040000
    Storage limit: 60000 bytes
    Smart contract rollup commitment cementing:
      Address: [SC_ROLLUP_HASH]
      Commitment: [SC_ROLLUP_COMMITMENT_HASH]
      This operation FAILED.

Error:
  Parent is not the last cemented commitment.

./octez-client --wait none cement commitment '[SC_ROLLUP_COMMITMENT_HASH]' from bootstrap1 for sc rollup '[SC_ROLLUP_HASH]'
Node is bootstrapped.
Estimated gas: 4115.524 units (will add 100 for safety)
Estimated storage: no bytes added
Operation successfully injected in the node.
Operation hash is '[OPERATION_HASH]'
NOT waiting for the operation to be included.
Use command
  octez-client wait for [OPERATION_HASH] to be included --confirmations 1 --branch [BLOCK_HASH]
and/or an external block explorer to make sure that it has been included.
This sequence of operations was run:
  Manager signed operations:
    From: [PUBLIC_KEY_HASH]
    Fee to the baker: ꜩ0.000719
    Expected counter: 6
    Gas limit: 4216
    Storage limit: 0 bytes
    Balance updates:
      [PUBLIC_KEY_HASH] ... -ꜩ0.000719
      payload fees(the block proposer) ....... +ꜩ0.000719
    Smart contract rollup commitment cementing:
      Address: [SC_ROLLUP_HASH]
      Commitment: [SC_ROLLUP_COMMITMENT_HASH]
      This smart contract rollup commitment cementing was successfully applied
      Consumed gas: 4115.524
      Inbox level: 5


./octez-client --wait none cement commitment '[SC_ROLLUP_COMMITMENT_HASH]' from bootstrap1 for sc rollup '[SC_ROLLUP_HASH]'
Node is bootstrapped.
Estimated gas: 4575.678 units (will add 100 for safety)
Estimated storage: no bytes added
Operation successfully injected in the node.
Operation hash is '[OPERATION_HASH]'
NOT waiting for the operation to be included.
Use command
  octez-client wait for [OPERATION_HASH] to be included --confirmations 1 --branch [BLOCK_HASH]
and/or an external block explorer to make sure that it has been included.
This sequence of operations was run:
  Manager signed operations:
    From: [PUBLIC_KEY_HASH]
    Fee to the baker: ꜩ0.000765
    Expected counter: 7
    Gas limit: 4676
    Storage limit: 0 bytes
    Balance updates:
      [PUBLIC_KEY_HASH] ... -ꜩ0.000765
      payload fees(the block proposer) ....... +ꜩ0.000765
    Smart contract rollup commitment cementing:
      Address: [SC_ROLLUP_HASH]
      Commitment: [SC_ROLLUP_COMMITMENT_HASH]
      This smart contract rollup commitment cementing was successfully applied
      Consumed gas: 4575.678
      Inbox level: 8


./octez-client --wait none cement commitment '[SC_ROLLUP_COMMITMENT_HASH]' from bootstrap1 for sc rollup '[SC_ROLLUP_HASH]'
Node is bootstrapped.
This simulation failed:
  Manager signed operations:
    From: [PUBLIC_KEY_HASH]
    Fee to the baker: ꜩ0
    Expected counter: 8
    Gas limit: 1040000
    Storage limit: 60000 bytes
    Smart contract rollup commitment cementing:
      Address: [SC_ROLLUP_HASH]
      Commitment: [SC_ROLLUP_COMMITMENT_HASH]
      This operation FAILED.

Error:
  Attempted to cement a disputed commitment.

./octez-client --wait none cement commitment '[SC_ROLLUP_COMMITMENT_HASH]' from bootstrap1 for sc rollup '[SC_ROLLUP_HASH]'
Node is bootstrapped.
This simulation failed:
  Manager signed operations:
    From: [PUBLIC_KEY_HASH]
    Fee to the baker: ꜩ0
    Expected counter: 8
    Gas limit: 1040000
    Storage limit: 60000 bytes
    Smart contract rollup commitment cementing:
      Address: [SC_ROLLUP_HASH]
      Commitment: [SC_ROLLUP_COMMITMENT_HASH]
      This operation FAILED.

Error:
  Attempted to cement a disputed commitment.

./octez-client --wait none cement commitment '[SC_ROLLUP_COMMITMENT_HASH]' from bootstrap1 for sc rollup '[SC_ROLLUP_HASH]'
Node is bootstrapped.
This simulation failed:
  Manager signed operations:
    From: [PUBLIC_KEY_HASH]
    Fee to the baker: ꜩ0
    Expected counter: 8
    Gas limit: 1040000
    Storage limit: 60000 bytes
    Smart contract rollup commitment cementing:
      Address: [SC_ROLLUP_HASH]
      Commitment: [SC_ROLLUP_COMMITMENT_HASH]
      This operation FAILED.

Error:
  Parent is not the last cemented commitment.

./octez-client --wait none cement commitment '[SC_ROLLUP_COMMITMENT_HASH]' from bootstrap1 for sc rollup '[SC_ROLLUP_HASH]'
Node is bootstrapped.
This simulation failed:
  Manager signed operations:
    From: [PUBLIC_KEY_HASH]
    Fee to the baker: ꜩ0
    Expected counter: 8
    Gas limit: 1040000
    Storage limit: 60000 bytes
    Smart contract rollup commitment cementing:
      Address: [SC_ROLLUP_HASH]
      Commitment: [SC_ROLLUP_COMMITMENT_HASH]
      This operation FAILED.

Error:
  Parent is not the last cemented commitment.

./octez-client --wait none timeout dispute on sc rollup '[SC_ROLLUP_HASH]' with '[PUBLIC_KEY_HASH]' from bootstrap1
Node is bootstrapped.
Estimated gas: 8211.326 units (will add 100 for safety)
Estimated storage: no bytes added
Operation successfully injected in the node.
Operation hash is '[OPERATION_HASH]'
NOT waiting for the operation to be included.
Use command
  octez-client wait for [OPERATION_HASH] to be included --confirmations 1 --branch [BLOCK_HASH]
and/or an external block explorer to make sure that it has been included.
This sequence of operations was run:
  Manager signed operations:
    From: [PUBLIC_KEY_HASH]
    Fee to the baker: ꜩ0.001139
    Expected counter: 8
    Gas limit: 8312
    Storage limit: 0 bytes
    Balance updates:
      [PUBLIC_KEY_HASH] ... -ꜩ0.001139
      payload fees(the block proposer) ....... +ꜩ0.001139
    Smart contract rollup refutation timeout:
      Address: [SC_ROLLUP_HASH]
      First staker (Alice): [PUBLIC_KEY_HASH]
      Second staker (Bob): [PUBLIC_KEY_HASH]
      This smart contract rollup refutation timeout was successfully applied
      Consumed gas: 8211.326
      Refutation game status: Game ended: [PUBLIC_KEY_HASH] lost because: timeout
      Balance updates:
        Frozen_bonds([PUBLIC_KEY_HASH],[SC_ROLLUP_HASH]) ... -ꜩ10000
        sc rollup refutation punishments ........................................................... +ꜩ10000
        sc rollup refutation rewards ............................................................... -ꜩ5000
        [PUBLIC_KEY_HASH] ....................................................... +ꜩ5000


./octez-client --wait none cement commitment '[SC_ROLLUP_COMMITMENT_HASH]' from bootstrap1 for sc rollup '[SC_ROLLUP_HASH]'
Node is bootstrapped.
This simulation failed:
  Manager signed operations:
    From: [PUBLIC_KEY_HASH]
    Fee to the baker: ꜩ0
    Expected counter: 9
    Gas limit: 1040000
    Storage limit: 60000 bytes
    Smart contract rollup commitment cementing:
      Address: [SC_ROLLUP_HASH]
      Commitment: [SC_ROLLUP_COMMITMENT_HASH]
      This operation FAILED.

Error:
  Commitment [SC_ROLLUP_COMMITMENT_HASH] does not exist

./octez-client --wait none cement commitment '[SC_ROLLUP_COMMITMENT_HASH]' from bootstrap1 for sc rollup '[SC_ROLLUP_HASH]'
Node is bootstrapped.
This simulation failed:
  Manager signed operations:
    From: [PUBLIC_KEY_HASH]
    Fee to the baker: ꜩ0
    Expected counter: 9
    Gas limit: 1040000
    Storage limit: 60000 bytes
    Smart contract rollup commitment cementing:
      Address: [SC_ROLLUP_HASH]
      Commitment: [SC_ROLLUP_COMMITMENT_HASH]
      This operation FAILED.

Error:
  Commitment [SC_ROLLUP_COMMITMENT_HASH] does not exist

./octez-client --wait none cement commitment '[SC_ROLLUP_COMMITMENT_HASH]' from bootstrap1 for sc rollup '[SC_ROLLUP_HASH]'
Node is bootstrapped.
Estimated gas: 5035.832 units (will add 100 for safety)
Estimated storage: no bytes added
Operation successfully injected in the node.
Operation hash is '[OPERATION_HASH]'
NOT waiting for the operation to be included.
Use command
  octez-client wait for [OPERATION_HASH] to be included --confirmations 1 --branch [BLOCK_HASH]
and/or an external block explorer to make sure that it has been included.
This sequence of operations was run:
  Manager signed operations:
    From: [PUBLIC_KEY_HASH]
    Fee to the baker: ꜩ0.000811
    Expected counter: 9
    Gas limit: 5136
    Storage limit: 0 bytes
    Balance updates:
      [PUBLIC_KEY_HASH] ... -ꜩ0.000811
      payload fees(the block proposer) ....... +ꜩ0.000811
    Smart contract rollup commitment cementing:
      Address: [SC_ROLLUP_HASH]
      Commitment: [SC_ROLLUP_COMMITMENT_HASH]
      This smart contract rollup commitment cementing was successfully applied
      Consumed gas: 5035.832
      Inbox level: 11


./octez-client --wait none cement commitment '[SC_ROLLUP_COMMITMENT_HASH]' from bootstrap1 for sc rollup '[SC_ROLLUP_HASH]'
Node is bootstrapped.
Estimated gas: 5265.986 units (will add 100 for safety)
Estimated storage: no bytes added
Operation successfully injected in the node.
Operation hash is '[OPERATION_HASH]'
NOT waiting for the operation to be included.
Use command
  octez-client wait for [OPERATION_HASH] to be included --confirmations 1 --branch [BLOCK_HASH]
and/or an external block explorer to make sure that it has been included.
This sequence of operations was run:
  Manager signed operations:
    From: [PUBLIC_KEY_HASH]
    Fee to the baker: ꜩ0.000834
    Expected counter: 10
    Gas limit: 5366
    Storage limit: 0 bytes
    Balance updates:
      [PUBLIC_KEY_HASH] ... -ꜩ0.000834
      payload fees(the block proposer) ....... +ꜩ0.000834
    Smart contract rollup commitment cementing:
      Address: [SC_ROLLUP_HASH]
      Commitment: [SC_ROLLUP_COMMITMENT_HASH]
      This smart contract rollup commitment cementing was successfully applied
      Consumed gas: 5265.986
      Inbox level: 14

